…
``` r
# most frequent observation concepts
count(omop_named$observation, observation_concept_name, sort=TRUE)
```

    ## # A tibble: 55 × 2
    ##    observation_concept_name                                                    n
    ##    <chr>                                                                   <int>
    ##  1 <NA>                                                                        9
    ##  2 Assault by unspecified gases and vapours                                    4
    ##  3 City of travel [Location]                                                   4
    ##  4 Advice given about 2019-nCoV (novel coronavirus) infection by telephone     3
    ##  5 Assault by other specified gases and vapours                                3
    ##  6 COVID-19 Intubation Progress note                                           3
    ##  7 Exposure to 2019-nCoV (novel coronavirus) infection                         3
    ##  8 Family history with explicit context pertaining to sibling                  3
    ##  9 Metastasis                                                                  3
    ## 10 Retired SNOMED UK Drug extension concept, do not use, use concept indi…     3
    ## # ℹ 45 more rows
…
``` r
# most frequent drug_exposure concepts
count(omop_named$drug_exposure, drug_concept_name, sort=TRUE)
```

    ## # A tibble: 61 × 2
    ##    drug_concept_name                                                           n
    ##    <chr>                                                                   <int>
    ##  1 Lotus corniculatus flower volatile oil                                      5
    ##  2 thyroid (USP) 81.25 MG Oral Tablet [Nature-Throid]                          4
    ##  3 Amomum villosum var. xanthioides whole extract                              3
    ##  4 Glycyrrhiza uralensis whole extract                                         3
    ##  5 hydrocortisone 0.5 MG/ML / lidocaine hydrochloride 0.5 MG/ML / pramoxi…     3
    ##  6 salicylic acid 2.5 MG/ML / sodium thiosulfate 1 MG/ML Medicated Shampoo     3
    ##  7 toltrazuril                                                                 3
    ##  8 zinc sulfate 125 MG Effervescent Oral Tablet                                3
    ##  9 0.1 ML influenza A virus vaccine, A-Victoria-361-2011 (H3N2)-like viru…     2
    ## 10 Aesculus hippocastanum seed oil                                             2
    ## # ℹ 51 more rows
…
